[gd_scene load_steps=4 format=2]

[ext_resource path="res://scripts/menu/main_menu.gd" type="Script" id=1]
[ext_resource path="res://scripts/menu/frame_counter.gd" type="Script" id=2]
[ext_resource path="res://scripts/menu/time_counter.gd" type="Script" id=3]

[node name="Panel" type="Panel"]
anchor_right = 0.142578
anchor_bottom = 0.258333
margin_right = 0.00012207
margin_bottom = 25.0002
script = ExtResource( 1 )
__meta__ = {
"_edit_use_anchors_": false
}

[node name="Hello" type="Label" parent="."]
margin_left = 2.35355
margin_top = 2.64645
margin_right = 143.354
margin_bottom = 36.6464
text = "Hello !
Ready to play ?"
align = 1
__meta__ = {
"_edit_use_anchors_": false
}

[node name="Ready" type="Button" parent="."]
margin_left = 32.0468
margin_top = 40.1629
margin_right = 112.047
margin_bottom = 60.1629
text = "I'm ready !"
__meta__ = {
"_edit_use_anchors_": false,
"_editor_description_": ""
}

[node name="LevelQuestion" type="Label" parent="."]
visible = false
margin_left = 2.0
margin_top = 64.0
margin_right = 143.0
margin_bottom = 98.0
text = "How good are you
at video games ? "
align = 1
__meta__ = {
"_edit_use_anchors_": false
}

[node name="Level0" type="Button" parent="."]
visible = false
margin_left = 3.52512
margin_top = 99.0
margin_right = 65.5251
margin_bottom = 119.0
text = "Meh"
__meta__ = {
"_edit_use_anchors_": false,
"_editor_description_": ""
}

[node name="Level0Text" type="Label" parent="."]
visible = false
margin_left = 2.0
margin_top = 135.418
margin_right = 143.0
margin_bottom = 169.418
text = "Allright, you noob !"
align = 1
__meta__ = {
"_edit_use_anchors_": false
}

[node name="Level100" type="Button" parent="."]
visible = false
margin_left = 71.7609
margin_top = 99.3535
margin_right = 141.761
margin_bottom = 119.354
text = "Rock Star"
__meta__ = {
"_edit_use_anchors_": false,
"_editor_description_": ""
}

[node name="Level100Text" type="Label" parent="."]
visible = false
margin_left = 2.0
margin_top = 135.418
margin_right = 143.0
margin_bottom = 169.418
text = "Allright, you PGM !"
align = 1
__meta__ = {
"_edit_use_anchors_": false
}

[node name="FrameCounter" type="Label" parent="."]
margin_right = 40.0
margin_bottom = 18.0
script = ExtResource( 2 )

[node name="TimeCounter" type="Label" parent="."]
margin_left = 105.417
margin_top = 0.529732
margin_right = 145.417
margin_bottom = 18.5297
script = ExtResource( 3 )
