[gd_scene load_steps=6 format=2]

[ext_resource path="res://scripts/player_character.gd" type="Script" id=1]
[ext_resource path="res://assets/FA_assets/pawns/Sun_Plane_Touched_Spellcaster_Orb_01.png" type="Texture" id=2]
[ext_resource path="res://assets/light_assets/regular_white_light.png" type="Texture" id=4]
[ext_resource path="res://assets/utilities_assets/fog_texture.png" type="Texture" id=7]

[sub_resource type="CircleShape2D" id=1]
radius = 100.0

[node name="player_character" type="KinematicBody2D"]
script = ExtResource( 1 )

[node name="CollisionShape2D" type="CollisionShape2D" parent="."]
rotation = -1.5708
shape = SubResource( 1 )

[node name="Camera2D" type="Camera2D" parent="."]
position = Vector2( 0, -380 )
rotating = true
current = true
zoom = Vector2( 1.5, 1.5 )

[node name="FOG_generator" type="Light2D" parent="."]
position = Vector2( 0, 30 )
texture = ExtResource( 7 )
texture_scale = 3.5
mode = 2
shadow_enabled = true
shadow_color = Color( 0, 0, 0, 1 )
shadow_filter = 5
shadow_filter_smooth = 5.0

[node name="PC" type="Sprite" parent="."]
rotation = -3.14159
scale = Vector2( 0.6, 0.6 )
texture = ExtResource( 2 )

[node name="in_hand_torche" type="Light2D" parent="."]
position = Vector2( -24.6252, -78.6124 )
texture = ExtResource( 4 )
texture_scale = 0.25
color = Color( 0.878431, 0.490196, 0.109804, 1 )
shadow_enabled = true
